{
  "name": {
    "en-US": "initialized",
    "de-DE": "initialisierte"
  },
  "description": {
    "en-US": "An actor initialized a game session. This verb is only used with the gamesession activity for better session tracking.",
    "de-DE": "Ein Akteur initialisierte eine Spielinstanz. Dieses Verb wird nur mit der gamesession Aktivität verwendet, um Spielinstanzen besser verfolgen zu können."
  },
  "exactMatch": [
    "https://registry.tincanapi.com/#uri/verb/26",
    "https://adlnet.gov/expapi/verbs/initialized"
  ]
}
