{
  "name": {
    "en-US": "position",
    "de-DE": "Position"
  },
  "description": {
    "en-US": "An number or other identifier (e.g. 'top', 'bottom') to identify the position of an element inside a colletion such as an list of elements.",
    "de-DE": "Eine Nummer oder ein anderer Kennzeichnung einer Position eines Elementes einer Sammlung wie zum Beispliel einer Liste von Elementen."
  }
}
