{
  "name": {
    "en-US": "controller touchpad",
    "de-DE": "Controller Touchpad"
  },
  "description": {
    "en-US": "A VR controller touchpad the actor can use, appearance and possibilities depend on the specific conroller type.",
    "de-DE": "Ein VR Controller Touchpad, das die Akteurin benutzen kann. Aussehen und Möglichkeiten sind abhängig davon welcher Controller genutzt wurde."
  }
}
