{
  "name": {
    "en-US": "number errors",
    "de-DE": "Anzahl Fehler"
  },
  "description": {
    "en-US": "The number of Errors that have been made in a gamemode or level.",
    "de-DE": "Die Anzahl der Fehler, die in einem Spielmodus oder Level gemacht wurden."
  }
}
