{
  "name": {
    "en-US": "lost",
    "de-DE": "verlor"
  },
  "description": {
    "en-US": "An actor lost the game.",
    "de-DE": "Ein Akteur verlor das Spiel."
  },
  "exactMatch": [
    "https://registry.tincanapi.com/#uri/verb/124",
    "https://activitystrea.ms/schema/1.0/lose"
  ]
}
