{
  "name": {
    "en-US": "end time"
  },
  "description": {
    "en-US": "The time when the experiment was completed that is when the software was closed. This is captured from the system time of the local machine."
  }
}
