{
  "name": {
    "en-US": "ended",
    "de-DE": "beendete"
  },
  "description": {
    "en-US": "An actor ended a game session. This verb is only used with the gamesession activity for better session tracking.",
    "de-DE": "Ein Akteur beendete eine Spiel Instanz. Dieses Verb wird nur mit der gamesession Aktivität verwendet, um Spiel Instanzen besser verfolgen zu können."
  },
  "relatedMatch": ["https://registry.tincanapi.com/#uri/verb/29"]
}
