{
  "name": {
    "en-US": "logged out",
    "de-DE": "abgemeldet"
  },
  "description": {
    "en-US": "Actor logged out",
    "de-DE": "Akteur hat sich abgemeldet"
  },
  "exactMatch": [
    "https://registry.tincanapi.com/#uri/verb/398",
    "https://brindlewaye.com/xAPITerms/verbs/loggedout/"
  ],
  "relatedMatch": []
}
