{
  "name": {
    "en-US": "logged in",
    "de-DE": "angemeldet"
  },
  "description": {
    "en-US": "Actor logged in (as him-/herself)",
    "de-DE": "Akteur hat sich angemeldet (als er/sie selbst)"
  },
  "exactMatch": [
    "https://registry.tincanapi.com/#uri/verb/284",
    "https://brindlewaye.com/xAPITerms/verbs/loggedin/"
  ],
  "relatedMatch": []
}
