{
  "name": {
    "en-US": "updated",
    "de-DE": "aktualisiert"
  },
  "description": {
    "en-US": "Actor updated the content of an object",
    "de-DE": "Akteur aktualisierte den Inhalt eines Objekts."
  },
  "exactMatch": [],
  "relatedMatch": []
}
