{
  "name": {
    "en-US": "mirrored",
    "de-DE": "spiegelte"
  },
  "description": {
    "en-US": "An actor mirrored some game object.",
    "de-DE": "Ein Akteur spiegelte ein Spiel Objekt."
  }
}
