{
  "name": {
    "en-US": "text",
    "de-DE": "Text"
  },
  "description": {
    "en-US": "A text which can be read or entered.",
    "de-DE": "Ein Text der gelesen oder eingegeben werden kann."
  }
}
