{
  "name": {
    "en-US": "word",
    "de-DE": "Wort"
  },
  "description": {
    "en-US": "A word shown on the screen, with which for example can be interacted with in some way.",
    "de-DE": "Ein Wort welches auf dem Bildschirm angezeigt wird und mit dem man zum Beispiel interagieren kann."
  }
}
